^F:\FRÅN GRAFIK TILL SPEL - KONSTRUKTION AV NIVÅVERKTYG\ASSIGNMENT2 ERIK STÅHLBERG\ASSIGNMENT2\X64\DEBUG\CALLBACKS.OBJ|F:\FRÅN GRAFIK TILL SPEL - KONSTRUKTION AV NIVÅVERKTYG\ASSIGNMENT2 ERIK STÅHLBERG\ASSIGNMENT2\X64\DEBUG\MAIN.OBJ|F:\FRÅN GRAFIK TILL SPEL - KONSTRUKTION AV NIVÅVERKTYG\ASSIGNMENT2 ERIK STÅHLBERG\ASSIGNMENT2\X64\DEBUG\SHAREDMEMORY.OBJ
/OUT:"F:\FRÅN GRAFIK TILL SPEL - KONSTRUKTION AV NIVÅVERKTYG\ASSIGNMENT2 ERIK STÅHLBERG\X64\DEBUG\ASSIGNMENT2.MLL" /INCREMENTAL /NOLOGO /LIBPATH:"C:\Program Files\Autodesk\Maya2016\lib" kernel32.lib user32.lib gdi32.lib winspool.lib comdlg32.lib advapi32.lib shell32.lib ole32.lib oleaut32.lib uuid.lib odbc32.lib odbccp32.lib /MANIFEST /MANIFESTUAC:"level='asInvoker' uiAccess='false'" /manifest:embed /DEBUG /PDB:"F:\FRÅN GRAFIK TILL SPEL - KONSTRUKTION AV NIVÅVERKTYG\ASSIGNMENT2 ERIK STÅHLBERG\X64\DEBUG\ASSIGNMENT2.PDB" /SUBSYSTEM:WINDOWS /TLBID:1 /DYNAMICBASE /NXCOMPAT /IMPLIB:"F:\FRÅN GRAFIK TILL SPEL - KONSTRUKTION AV NIVÅVERKTYG\ASSIGNMENT2 ERIK STÅHLBERG\X64\DEBUG\ASSIGNMENT2.LIB" /MACHINE:X64 /DLL X64\DEBUG\CALLBACKS.OBJX64\DEBUG\MAIN.OBJX64\DEBUG\SHAREDMEMORY.OBJ
^C:\TEMP\GROUP-PROJECT-LEVEL-EDITOR\ASSIGNMENT2 ERIK STÅHLBERG\ASSIGNMENT2\X64\DEBUG\CALLBACKS.OBJ|C:\TEMP\GROUP-PROJECT-LEVEL-EDITOR\ASSIGNMENT2 ERIK STÅHLBERG\ASSIGNMENT2\X64\DEBUG\MAIN.OBJ|C:\TEMP\GROUP-PROJECT-LEVEL-EDITOR\ASSIGNMENT2 ERIK STÅHLBERG\ASSIGNMENT2\X64\DEBUG\SHAREDMEMORY.OBJ
/OUT:"C:\TEMP\GROUP-PROJECT-LEVEL-EDITOR\ASSIGNMENT2 ERIK STÅHLBERG\X64\DEBUG\ASSIGNMENT2.MLL" /INCREMENTAL /NOLOGO /LIBPATH:"C:\Program Files\Autodesk\Maya2016\lib" kernel32.lib user32.lib gdi32.lib winspool.lib comdlg32.lib advapi32.lib shell32.lib ole32.lib oleaut32.lib uuid.lib odbc32.lib odbccp32.lib /MANIFEST /MANIFESTUAC:"level='asInvoker' uiAccess='false'" /manifest:embed /DEBUG /PDB:"C:\TEMP\GROUP-PROJECT-LEVEL-EDITOR\ASSIGNMENT2 ERIK STÅHLBERG\X64\DEBUG\ASSIGNMENT2.PDB" /SUBSYSTEM:WINDOWS /TLBID:1 /DYNAMICBASE /NXCOMPAT /IMPLIB:"C:\TEMP\GROUP-PROJECT-LEVEL-EDITOR\ASSIGNMENT2 ERIK STÅHLBERG\X64\DEBUG\ASSIGNMENT2.LIB" /MACHINE:X64 /DLL X64\DEBUG\CALLBACKS.OBJX64\DEBUG\MAIN.OBJX64\DEBUG\SHAREDMEMORY.OBJ
^C:\USERS\BTH\DESKTOP\GROUP-PROJECT-LEVEL-EDITOR\ASSIGNMENT2 ERIK STÅHLBERG\ASSIGNMENT2\X64\DEBUG\CALLBACKS.OBJ|C:\USERS\BTH\DESKTOP\GROUP-PROJECT-LEVEL-EDITOR\ASSIGNMENT2 ERIK STÅHLBERG\ASSIGNMENT2\X64\DEBUG\MAIN.OBJ|C:\USERS\BTH\DESKTOP\GROUP-PROJECT-LEVEL-EDITOR\ASSIGNMENT2 ERIK STÅHLBERG\ASSIGNMENT2\X64\DEBUG\SHAREDMEMORY.OBJ
/OUT:"C:\USERS\BTH\DESKTOP\GROUP-PROJECT-LEVEL-EDITOR\ASSIGNMENT2 ERIK STÅHLBERG\X64\DEBUG\ASSIGNMENT2.MLL" /INCREMENTAL /NOLOGO /LIBPATH:"C:\Program Files\Autodesk\Maya2016\lib" kernel32.lib user32.lib gdi32.lib winspool.lib comdlg32.lib advapi32.lib shell32.lib ole32.lib oleaut32.lib uuid.lib odbc32.lib odbccp32.lib /MANIFEST /MANIFESTUAC:"level='asInvoker' uiAccess='false'" /manifest:embed /DEBUG /PDB:"C:\USERS\BTH\DESKTOP\GROUP-PROJECT-LEVEL-EDITOR\ASSIGNMENT2 ERIK STÅHLBERG\X64\DEBUG\ASSIGNMENT2.PDB" /SUBSYSTEM:WINDOWS /TLBID:1 /DYNAMICBASE /NXCOMPAT /IMPLIB:"C:\USERS\BTH\DESKTOP\GROUP-PROJECT-LEVEL-EDITOR\ASSIGNMENT2 ERIK STÅHLBERG\X64\DEBUG\ASSIGNMENT2.LIB" /MACHINE:X64 /DLL X64\DEBUG\CALLBACKS.OBJX64\DEBUG\MAIN.OBJX64\DEBUG\SHAREDMEMORY.OBJ
