^C:\USERS\STAHL\DOCUMENTS\VISUAL STUDIO 2015\PROJECTS\DIRECTXSHARED\DIRECTXSHARED\DEBUG\MAIN.OBJ
/OUT:"C:\USERS\STAHL\DOCUMENTS\VISUAL STUDIO 2015\PROJECTS\DIRECTXSHARED\DEBUG\DIRECTXSHARED.EXE" /INCREMENTAL /NOLOGO KERNEL32.LIB USER32.LIB GDI32.LIB WINSPOOL.LIB COMDLG32.LIB ADVAPI32.LIB SHELL32.LIB OLE32.LIB OLEAUT32.LIB UUID.LIB ODBC32.LIB ODBCCP32.LIB /MANIFEST /MANIFESTUAC:"level='asInvoker' uiAccess='false'" /manifest:embed /Debug /PDB:"C:\USERS\STAHL\DOCUMENTS\VISUAL STUDIO 2015\PROJECTS\DIRECTXSHARED\DEBUG\DIRECTXSHARED.PDB" /SUBSYSTEM:WINDOWS /TLBID:1 /DYNAMICBASE /NXCOMPAT /IMPLIB:"C:\USERS\STAHL\DOCUMENTS\VISUAL STUDIO 2015\PROJECTS\DIRECTXSHARED\DEBUG\DIRECTXSHARED.LIB" /MACHINE:X86 DEBUG\MAIN.OBJ
^D:\FRÅN GRAFIK TILL SPEL - KONSTRUKTION AV NIVÅVERKTYG\DIRECTXSHARED\DIRECTXSHARED\DEBUG\CAMERA.OBJ|D:\FRÅN GRAFIK TILL SPEL - KONSTRUKTION AV NIVÅVERKTYG\DIRECTXSHARED\DIRECTXSHARED\DEBUG\D3D.OBJ|D:\FRÅN GRAFIK TILL SPEL - KONSTRUKTION AV NIVÅVERKTYG\DIRECTXSHARED\DIRECTXSHARED\DEBUG\LIGHTS.OBJ|D:\FRÅN GRAFIK TILL SPEL - KONSTRUKTION AV NIVÅVERKTYG\DIRECTXSHARED\DIRECTXSHARED\DEBUG\MAIN.OBJ|D:\FRÅN GRAFIK TILL SPEL - KONSTRUKTION AV NIVÅVERKTYG\DIRECTXSHARED\DIRECTXSHARED\DEBUG\MESHES.OBJ|D:\FRÅN GRAFIK TILL SPEL - KONSTRUKTION AV NIVÅVERKTYG\DIRECTXSHARED\DIRECTXSHARED\DEBUG\SHAREDMEMORY.OBJ
/OUT:"D:\FRÅN GRAFIK TILL SPEL - KONSTRUKTION AV NIVÅVERKTYG\DIRECTXSHARED\DEBUG\DIRECTXSHARED.EXE" /INCREMENTAL /NOLOGO KERNEL32.LIB USER32.LIB GDI32.LIB WINSPOOL.LIB COMDLG32.LIB ADVAPI32.LIB SHELL32.LIB OLE32.LIB OLEAUT32.LIB UUID.LIB ODBC32.LIB ODBCCP32.LIB /MANIFEST /MANIFESTUAC:"level='asInvoker' uiAccess='false'" /manifest:embed /Debug /PDB:"D:\FRÅN GRAFIK TILL SPEL - KONSTRUKTION AV NIVÅVERKTYG\DIRECTXSHARED\DEBUG\DIRECTXSHARED.PDB" /SUBSYSTEM:WINDOWS /TLBID:1 /DYNAMICBASE /NXCOMPAT /IMPLIB:"D:\FRÅN GRAFIK TILL SPEL - KONSTRUKTION AV NIVÅVERKTYG\DIRECTXSHARED\DEBUG\DIRECTXSHARED.LIB" /MACHINE:X86 DEBUG\CAMERA.OBJDEBUG\D3D.OBJDEBUG\LIGHTS.OBJDEBUG\MAIN.OBJDEBUG\MESHES.OBJDEBUG\SHAREDMEMORY.OBJ
^F:\FRÅN GRAFIK TILL SPEL - KONSTRUKTION AV NIVÅVERKTYG\DIRECTXSHARED\DIRECTXSHARED\DEBUG\CAMERA.OBJ|F:\FRÅN GRAFIK TILL SPEL - KONSTRUKTION AV NIVÅVERKTYG\DIRECTXSHARED\DIRECTXSHARED\DEBUG\D3D.OBJ|F:\FRÅN GRAFIK TILL SPEL - KONSTRUKTION AV NIVÅVERKTYG\DIRECTXSHARED\DIRECTXSHARED\DEBUG\LIGHTS.OBJ|F:\FRÅN GRAFIK TILL SPEL - KONSTRUKTION AV NIVÅVERKTYG\DIRECTXSHARED\DIRECTXSHARED\DEBUG\MAIN.OBJ|F:\FRÅN GRAFIK TILL SPEL - KONSTRUKTION AV NIVÅVERKTYG\DIRECTXSHARED\DIRECTXSHARED\DEBUG\MESHES.OBJ|F:\FRÅN GRAFIK TILL SPEL - KONSTRUKTION AV NIVÅVERKTYG\DIRECTXSHARED\DIRECTXSHARED\DEBUG\SHAREDMEMORY.OBJ
/OUT:"F:\FRÅN GRAFIK TILL SPEL - KONSTRUKTION AV NIVÅVERKTYG\DIRECTXSHARED\DEBUG\DIRECTXSHARED.EXE" /INCREMENTAL /NOLOGO KERNEL32.LIB USER32.LIB GDI32.LIB WINSPOOL.LIB COMDLG32.LIB ADVAPI32.LIB SHELL32.LIB OLE32.LIB OLEAUT32.LIB UUID.LIB ODBC32.LIB ODBCCP32.LIB /MANIFEST /MANIFESTUAC:"level='asInvoker' uiAccess='false'" /manifest:embed /Debug /PDB:"F:\FRÅN GRAFIK TILL SPEL - KONSTRUKTION AV NIVÅVERKTYG\DIRECTXSHARED\DEBUG\DIRECTXSHARED.PDB" /SUBSYSTEM:WINDOWS /TLBID:1 /DYNAMICBASE /NXCOMPAT /IMPLIB:"F:\FRÅN GRAFIK TILL SPEL - KONSTRUKTION AV NIVÅVERKTYG\DIRECTXSHARED\DEBUG\DIRECTXSHARED.LIB" /MACHINE:X86 DEBUG\CAMERA.OBJDEBUG\D3D.OBJDEBUG\LIGHTS.OBJDEBUG\MAIN.OBJDEBUG\MESHES.OBJDEBUG\SHAREDMEMORY.OBJ
